110,I,1/1/2020
111,I,1/1/2020
112,I,1/1/2020
113,I,1/1/2020
114,I,1/1/2020
115,I,1/1/2020
116,I,1/1/2020
117,I,1/1/2020
118,I,1/1/2020
119,I,1/1/2020
120,O,1/1/2020
121,O,1/1/2020
122,O,1/1/2020
123,O,1/1/2020
124,O,1/1/2020
125,O,1/1/2020
126,O,1/1/2020
127,O,1/1/2020
128,O,1/1/2020
129,O,1/1/2020
130,O,1/1/2020
131,O,1/1/2020
132,O,1/1/2020
133,O,1/1/2020
134,O,1/1/2020
135,O,1/1/2020
137,O,1/1/2020
138,O,1/1/2020
139,O,1/1/2020
140,O,1/1/2020
141,O,1/1/2020
142,O,1/1/2020
143,O,1/1/2020
144,O,1/1/2020
145,O,1/1/2020
147,O,1/1/2020
148,O,1/1/2020
149,O,1/1/2020
150,U,1/1/2020
151,U,1/1/2020
152,U,1/1/2020
153,U,1/1/2020
154,U,1/1/2020
155,U,1/1/2020
157,U,1/1/2020
158,U,1/1/2020
159,U,1/1/2020
160,U,1/1/2020
161,U,1/1/2020
162,U,1/1/2020
163,U,1/1/2020
164,U,1/1/2020
165,U,1/1/2020
167,U,1/1/2020
168,U,1/1/2020
169,U,1/1/2020
170,I,1/1/2020
171,I,1/1/2020
172,I,1/1/2020
173,I,1/1/2020
174,I,1/1/2020
175,I,1/1/2020
177,I,1/1/2020
178,I,1/1/2020
179,I,1/1/2020
180,I,1/1/2020
181,I,1/1/2020
182,I,1/1/2020
183,I,1/1/2020
184,I,1/1/2020
185,I,1/1/2020
187,I,1/1/2020
188,I,1/1/2020
189,I,1/1/2020
210,I,1/1/2020
211,I,1/1/2020
212,I,1/1/2020
213,I,1/1/2020
214,I,1/1/2020
215,I,1/1/2020
217,I,1/1/2020
218,I,1/1/2020
219,I,1/1/2020
220,O,1/1/2020
221,O,1/1/2020
222,O,1/1/2020
223,O,1/1/2020
224,O,1/1/2020
225,O,1/1/2020
227,O,1/1/2020
228,O,1/1/2020
229,O,1/1/2020
230,O,1/1/2020
231,O,1/1/2020
232,O,1/1/2020
233,O,1/1/2020
234,O,1/1/2020
235,O,1/1/2020
237,O,1/1/2020
238,O,1/1/2020
239,O,1/1/2020
240,U,1/1/2020
241,U,1/1/2020
242,U,1/1/2020
243,U,1/1/2020
244,U,1/1/2020
245,U,1/1/2020
247,U,1/1/2020
248,U,1/1/2020
249,U,1/1/2020
250,U,1/1/2020
251,U,1/1/2020
252,U,1/1/2020
253,U,1/1/2020
254,U,1/1/2020
255,U,1/1/2020
257,U,1/1/2020
258,U,1/1/2020
259,U,1/1/2020
260,U,1/1/2020
261,U,1/1/2020
262,U,1/1/2020
263,U,1/1/2020
264,U,1/1/2020
265,U,1/1/2020
267,U,1/1/2020
268,U,1/1/2020
269,U,1/1/2020
270,I,1/1/2020
271,I,1/1/2020
272,I,1/1/2020
273,I,1/1/2020
274,I,1/1/2020
275,I,1/1/2020
277,I,1/1/2020
278,I,1/1/2020
279,I,1/1/2020
280,I,1/1/2020
281,I,1/1/2020
282,I,1/1/2020
283,I,1/1/2020
284,I,1/1/2020
285,I,1/1/2020
287,I,1/1/2020
288,I,1/1/2020
289,I,1/1/2020
310,I,1/1/2020
311,I,1/1/2020
312,I,1/1/2020
313,I,1/1/2020
314,I,1/1/2020
315,I,1/1/2020
317,I,1/1/2020
318,I,1/1/2020
319,I,1/1/2020
320,O,1/1/2020
321,O,1/1/2020
322,O,1/1/2020
323,O,1/1/2020
324,O,1/1/2020
325,O,1/1/2020
327,O,1/1/2020
328,O,1/1/2020
329,O,1/1/2020
330,O,1/1/2020
331,O,1/1/2020
332,O,1/1/2020
333,O,1/1/2020
334,O,1/1/2020
335,O,1/1/2020
337,O,1/1/2020
338,O,1/1/2020
339,O,1/1/2020
340,O,1/1/2020
341,O,1/1/2020
342,O,1/1/2020
343,O,1/1/2020
344,O,1/1/2020
345,O,1/1/2020
347,O,1/1/2020
348,O,1/1/2020
349,O,1/1/2020
350,U,1/1/2020
351,U,1/1/2020
352,U,1/1/2020
353,U,1/1/2020
354,U,1/1/2020
355,U,1/1/2020
357,U,1/1/2020
358,U,1/1/2020
359,U,1/1/2020
360,U,1/1/2020
361,U,1/1/2020
362,U,1/1/2020
363,U,1/1/2020
364,U,1/1/2020
365,U,1/1/2020
367,U,1/1/2020
368,U,1/1/2020
369,U,1/1/2020
370,I,1/1/2020
371,I,1/1/2020
372,I,1/1/2020
373,I,1/1/2020
374,I,1/1/2020
375,I,1/1/2020
377,I,1/1/2020
378,I,1/1/2020
379,I,1/1/2020
380,I,1/1/2020
381,I,1/1/2020
382,I,1/1/2020
383,I,1/1/2020
384,I,1/1/2020
385,I,1/1/2020
387,I,1/1/2020
388,I,1/1/2020
389,I,1/1/2020
410,I,1/1/2020
411,I,1/1/2020
412,I,1/1/2020
413,I,1/1/2020
414,I,1/1/2020
415,I,1/1/2020
417,I,1/1/2020
418,I,1/1/2020
419,I,1/1/2020
420,I,1/1/2020
421,I,1/1/2020
422,I,1/1/2020
423,I,1/1/2020
424,I,1/1/2020
425,I,1/1/2020
427,I,1/1/2020
428,I,1/1/2020
429,I,1/1/2020
430,O,1/1/2020
431,O,1/1/2020
432,O,1/1/2020
433,O,1/1/2020
434,O,1/1/2020
435,O,1/1/2020
437,O,1/1/2020
438,O,1/1/2020
439,O,1/1/2020
440,U,1/1/2020
441,U,1/1/2020
442,U,1/1/2020
443,U,1/1/2020
444,U,1/1/2020
445,U,1/1/2020
447,U,1/1/2020
448,U,1/1/2020
449,U,1/1/2020
450,U,1/1/2020
451,U,1/1/2020
452,U,1/1/2020
453,U,1/1/2020
454,U,1/1/2020
455,U,1/1/2020
457,U,1/1/2020
458,U,1/1/2020
459,U,1/1/2020
460,U,1/1/2020
461,U,1/1/2020
462,U,1/1/2020
463,U,1/1/2020
464,U,1/1/2020
465,U,1/1/2020
467,U,1/1/2020
468,U,1/1/2020
469,U,1/1/2020
470,I,1/1/2020
471,I,1/1/2020
472,I,1/1/2020
473,I,1/1/2020
474,I,1/1/2020
475,I,1/1/2020
477,I,1/1/2020
478,I,1/1/2020
479,I,1/1/2020
480,I,1/1/2020
481,I,1/1/2020
482,I,1/1/2020
483,I,1/1/2020
484,I,1/1/2020
485,I,1/1/2020
487,I,1/1/2020
488,I,1/1/2020
489,I,1/1/2020
510,I,1/1/2020
511,I,1/1/2020
512,I,1/1/2020
513,I,1/1/2020
514,I,1/1/2020
515,I,1/1/2020
517,I,1/1/2020
518,I,1/1/2020
519,I,1/1/2020
520,I,1/1/2020
521,I,1/1/2020
522,I,1/1/2020
523,I,1/1/2020
524,I,1/1/2020
525,I,1/1/2020
527,I,1/1/2020
528,I,1/1/2020
529,I,1/1/2020
530,O,1/1/2020
531,O,1/1/2020
532,O,1/1/2020
533,O,1/1/2020
534,O,1/1/2020
535,O,1/1/2020
537,O,1/1/2020
538,O,1/1/2020
539,O,1/1/2020
540,U,1/1/2020
541,U,1/1/2020
542,U,1/1/2020
543,U,1/1/2020
544,U,1/1/2020
545,U,1/1/2020
547,U,1/1/2020
548,U,1/1/2020
549,U,1/1/2020
550,U,1/1/2020
551,U,1/1/2020
552,U,1/1/2020
553,U,1/1/2020
554,U,1/1/2020
555,U,1/1/2020
557,U,1/1/2020
558,U,1/1/2020
559,U,1/1/2020
560,U,1/1/2020
561,U,1/1/2020
562,U,1/1/2020
563,U,1/1/2020
564,U,1/1/2020
565,U,1/1/2020
567,U,1/1/2020
568,U,1/1/2020
569,U,1/1/2020
570,I,1/1/2020
571,I,1/1/2020
572,I,1/1/2020
573,I,1/1/2020
574,I,1/1/2020
575,I,1/1/2020
577,I,1/1/2020
578,I,1/1/2020
579,I,1/1/2020
580,I,1/1/2020
581,I,1/1/2020
582,I,1/1/2020
583,I,1/1/2020
584,I,1/1/2020
585,I,1/1/2020
587,I,1/1/2020
588,I,1/1/2020
589,I,1/1/2020
610,I,1/1/2020
611,I,1/1/2020
612,I,1/1/2020
613,I,1/1/2020
614,I,1/1/2020
615,I,1/1/2020
617,I,1/1/2020
618,I,1/1/2020
619,I,1/1/2020
620,I,1/1/2020
621,I,1/1/2020
622,I,1/1/2020
623,I,1/1/2020
624,I,1/1/2020
625,I,1/1/2020
627,I,1/1/2020
628,I,1/1/2020
629,I,1/1/2020
630,O,1/1/2020
631,O,1/1/2020
632,O,1/1/2020
633,O,1/1/2020
634,O,1/1/2020
635,O,1/1/2020
637,O,1/1/2020
638,O,1/1/2020
639,O,1/1/2020
640,U,1/1/2020
641,U,1/1/2020
642,U,1/1/2020
643,U,1/1/2020
644,U,1/1/2020
645,U,1/1/2020
647,U,1/1/2020
648,U,1/1/2020
649,U,1/1/2020
650,I,1/1/2020
651,I,1/1/2020
652,I,1/1/2020
653,I,1/1/2020
654,I,1/1/2020
655,I,1/1/2020
657,I,1/1/2020
658,I,1/1/2020
659,I,1/1/2020
660,I,1/1/2020
661,I,1/1/2020
662,I,1/1/2020
663,I,1/1/2020
664,I,1/1/2020
665,I,1/1/2020
667,I,1/1/2020
668,I,1/1/2020
669,I,1/1/2020
670,I,1/1/2020
671,I,1/1/2020
672,I,1/1/2020
673,I,1/1/2020
674,I,1/1/2020
675,I,1/1/2020
677,I,1/1/2020
678,I,1/1/2020
679,I,1/1/2020
680,I,1/1/2020
681,I,1/1/2020
682,I,1/1/2020
683,I,1/1/2020
684,I,1/1/2020
685,I,1/1/2020
687,I,1/1/2020
688,I,1/1/2020
689,I,1/1/2020
710,O,1/1/2020
711,O,1/1/2020
712,O,1/1/2020
713,O,1/1/2020
714,O,1/1/2020
715,O,1/1/2020
717,O,1/1/2020
718,O,1/1/2020
719,O,1/1/2020
720,O,1/1/2020
721,O,1/1/2020
722,O,1/1/2020
723,O,1/1/2020
724,O,1/1/2020
725,O,1/1/2020
727,O,1/1/2020
728,O,1/1/2020
729,O,1/1/2020
730,O,1/1/2020
731,O,1/1/2020
732,O,1/1/2020
733,O,1/1/2020
734,O,1/1/2020
735,O,1/1/2020
737,O,1/1/2020
738,O,1/1/2020
739,O,1/1/2020
740,O,1/1/2020
741,O,1/1/2020
742,O,1/1/2020
743,O,1/1/2020
744,O,1/1/2020
745,O,1/1/2020
747,O,1/1/2020
748,O,1/1/2020
749,O,1/1/2020
750,O,1/1/2020
751,O,1/1/2020
752,O,1/1/2020
753,O,1/1/2020
754,O,1/1/2020
755,O,1/1/2020
757,O,1/1/2020
758,O,1/1/2020
759,O,1/1/2020
760,O,1/1/2020
761,O,1/1/2020
762,O,1/1/2020
763,O,1/1/2020
764,O,1/1/2020
765,O,1/1/2020
767,O,1/1/2020
768,O,1/1/2020
769,O,1/1/2020
770,O,1/1/2020
771,O,1/1/2020
772,O,1/1/2020
773,O,1/1/2020
774,O,1/1/2020
775,O,1/1/2020
777,O,1/1/2020
778,O,1/1/2020
779,O,1/1/2020
780,O,1/1/2020
781,O,1/1/2020
782,O,1/1/2020
783,O,1/1/2020
784,O,1/1/2020
785,O,1/1/2020
787,O,1/1/2020
788,O,1/1/2020
789,O,1/1/2020
790,O,1/1/2020
791,O,1/1/2020
792,O,1/1/2020
793,O,1/1/2020
794,O,1/1/2020
795,O,1/1/2020
797,O,1/1/2020
798,O,1/1/2020
799,O,1/1/2020
810,O,1/1/2020
811,O,1/1/2020
812,O,1/1/2020
813,O,1/1/2020
814,O,1/1/2020
815,O,1/1/2020
817,O,1/1/2020
818,O,1/1/2020
819,O,1/1/2020
820,O,1/1/2020
821,O,1/1/2020
822,O,1/1/2020
823,O,1/1/2020
824,O,1/1/2020
825,O,1/1/2020
827,O,1/1/2020
828,O,1/1/2020
829,O,1/1/2020
830,O,1/1/2020
831,O,1/1/2020
832,O,1/1/2020
833,O,1/1/2020
834,O,1/1/2020
835,O,1/1/2020
837,O,1/1/2020
838,O,1/1/2020
839,O,1/1/2020
840,O,1/1/2020
841,O,1/1/2020
842,O,1/1/2020
843,O,1/1/2020
844,O,1/1/2020
845,O,1/1/2020
847,O,1/1/2020
848,O,1/1/2020
849,O,1/1/2020
850,O,1/1/2020
851,O,1/1/2020
852,O,1/1/2020
853,O,1/1/2020
854,O,1/1/2020
855,O,1/1/2020
857,O,1/1/2020
858,O,1/1/2020
859,O,1/1/2020
860,I,1/1/2020
861,I,1/1/2020
862,I,1/1/2020
863,I,1/1/2020
864,I,1/1/2020
865,I,1/1/2020
867,I,1/1/2020
868,I,1/1/2020
869,I,1/1/2020
890,O,1/1/2020
891,O,1/1/2020
892,O,1/1/2020
893,O,1/1/2020
894,O,1/1/2020
895,O,1/1/2020
897,O,1/1/2020
898,O,1/1/2020
899,O,1/1/2020
11A,I,1/1/2020
11B,I,1/1/2020
11C,I,1/1/2020
11D,I,1/1/2020
11E,I,1/1/2020
11F,I,1/1/2020
11G,I,1/1/2020
11H,I,1/1/2020
11I,I,1/1/2020
11J,I,1/1/2020
11K,I,1/1/2020
11M,I,1/1/2020
11N,I,1/1/2020
11O,I,1/1/2020
11P,I,1/1/2020
11Q,I,1/1/2020
11X,I,1/1/2020
11Y,I,1/1/2020
11Z,I,1/1/2020
12A,O,1/1/2020
12B,O,1/1/2020
12C,O,1/1/2020
12D,O,1/1/2020
12E,O,1/1/2020
12F,O,1/1/2020
12G,O,1/1/2020
12H,O,1/1/2020
12I,O,1/1/2020
12J,O,1/1/2020
12K,O,1/1/2020
12M,O,1/1/2020
12N,O,1/1/2020
12O,O,1/1/2020
12P,O,1/1/2020
12Q,O,1/1/2020
12X,O,1/1/2020
12Y,O,1/1/2020
12Z,O,1/1/2020
13A,O,1/1/2020
13B,O,1/1/2020
13C,O,1/1/2020
13D,O,1/1/2020
13E,O,1/1/2020
13F,O,1/1/2020
13G,O,1/1/2020
13H,O,1/1/2020
13I,O,1/1/2020
13J,O,1/1/2020
13K,O,1/1/2020
13M,O,1/1/2020
13N,O,1/1/2020
13O,O,1/1/2020
13P,O,1/1/2020
13Q,O,1/1/2020
13X,O,1/1/2020
13Y,O,1/1/2020
13Z,O,1/1/2020
14A,O,1/1/2020
14B,O,1/1/2020
14C,O,1/1/2020
14D,O,1/1/2020
14E,O,1/1/2020
14F,O,1/1/2020
14G,O,1/1/2020
14H,O,1/1/2020
14I,O,1/1/2020
14J,O,1/1/2020
14K,O,1/1/2020
14M,O,1/1/2020
14N,O,1/1/2020
14O,O,1/1/2020
14P,O,1/1/2020
14Q,O,1/1/2020
14X,O,1/1/2020
14Y,O,1/1/2020
14Z,O,1/1/2020
15A,U,1/1/2020
15B,U,1/1/2020
15C,U,1/1/2020
15D,U,1/1/2020
15E,U,1/1/2020
15F,U,1/1/2020
15G,U,1/1/2020
15H,U,1/1/2020
15I,U,1/1/2020
15J,U,1/1/2020
15K,U,1/1/2020
15M,U,1/1/2020
15N,U,1/1/2020
15O,U,1/1/2020
15P,U,1/1/2020
15Q,U,1/1/2020
15X,U,1/1/2020
15Y,U,1/1/2020
15Z,U,1/1/2020
16A,U,1/1/2020
16B,U,1/1/2020
16C,U,1/1/2020
16D,U,1/1/2020
16E,U,1/1/2020
16F,U,1/1/2020
16G,U,1/1/2020
16H,U,1/1/2020
16I,U,1/1/2020
16J,U,1/1/2020
16K,U,1/1/2020
16M,U,1/1/2020
16N,U,1/1/2020
16O,U,1/1/2020
16P,U,1/1/2020
16Q,U,1/1/2020
16X,U,1/1/2020
16Y,U,1/1/2020
16Z,U,1/1/2020
17A,I,1/1/2020
17B,I,1/1/2020
17C,I,1/1/2020
17D,I,1/1/2020
17E,I,1/1/2020
17F,I,1/1/2020
17G,I,1/1/2020
17H,I,1/1/2020
17I,I,1/1/2020
17J,I,1/1/2020
17K,I,1/1/2020
17M,I,1/1/2020
17N,I,1/1/2020
17O,I,1/1/2020
17P,I,1/1/2020
17Q,I,1/1/2020
17X,I,1/1/2020
17Y,I,1/1/2020
17Z,I,1/1/2020
18A,I,1/1/2020
18B,I,1/1/2020
18C,I,1/1/2020
18D,I,1/1/2020
18E,I,1/1/2020
18F,I,1/1/2020
18G,I,1/1/2020
18H,I,1/1/2020
18I,I,1/1/2020
18J,I,1/1/2020
18K,I,1/1/2020
18M,I,1/1/2020
18N,I,1/1/2020
18O,I,1/1/2020
18P,I,1/1/2020
18Q,I,1/1/2020
18X,I,1/1/2020
18Y,I,1/1/2020
18Z,I,1/1/2020
21A,I,1/1/2020
21B,I,1/1/2020
21C,I,1/1/2020
21D,I,1/1/2020
21E,I,1/1/2020
21F,I,1/1/2020
21G,I,1/1/2020
21H,I,1/1/2020
21I,I,1/1/2020
21J,I,1/1/2020
21K,I,1/1/2020
21M,I,1/1/2020
21N,I,1/1/2020
21O,I,1/1/2020
21P,I,1/1/2020
21Q,I,1/1/2020
21X,I,1/1/2020
21Y,I,1/1/2020
21Z,I,1/1/2020
22A,O,1/1/2020
22B,O,1/1/2020
22C,O,1/1/2020
22D,O,1/1/2020
22E,O,1/1/2020
22F,O,1/1/2020
22G,O,1/1/2020
22H,O,1/1/2020
22I,O,1/1/2020
22J,O,1/1/2020
22K,O,1/1/2020
22M,O,1/1/2020
22N,O,1/1/2020
22O,O,1/1/2020
22P,O,1/1/2020
22Q,O,1/1/2020
22X,O,1/1/2020
22Y,O,1/1/2020
22Z,O,1/1/2020
23A,O,1/1/2020
23B,O,1/1/2020
23C,O,1/1/2020
23D,O,1/1/2020
23E,O,1/1/2020
23F,O,1/1/2020
23G,O,1/1/2020
23H,O,1/1/2020
23I,O,1/1/2020
23J,O,1/1/2020
23K,O,1/1/2020
23M,O,1/1/2020
23N,O,1/1/2020
23O,O,1/1/2020
23P,O,1/1/2020
23Q,O,1/1/2020
23X,O,1/1/2020
23Y,O,1/1/2020
23Z,O,1/1/2020
24A,U,1/1/2020
24B,U,1/1/2020
24C,U,1/1/2020
24D,U,1/1/2020
24E,U,1/1/2020
24F,U,1/1/2020
24G,U,1/1/2020
24H,U,1/1/2020
24I,U,1/1/2020
24J,U,1/1/2020
24K,U,1/1/2020
24M,U,1/1/2020
24N,U,1/1/2020
24O,U,1/1/2020
24P,U,1/1/2020
24Q,U,1/1/2020
24X,U,1/1/2020
24Y,U,1/1/2020
24Z,U,1/1/2020
25A,U,1/1/2020
25B,U,1/1/2020
25C,U,1/1/2020
25D,U,1/1/2020
25E,U,1/1/2020
25F,U,1/1/2020
25G,U,1/1/2020
25H,U,1/1/2020
25I,U,1/1/2020
25J,U,1/1/2020
25K,U,1/1/2020
25M,U,1/1/2020
25N,U,1/1/2020
25O,U,1/1/2020
25P,U,1/1/2020
25Q,U,1/1/2020
25X,U,1/1/2020
25Y,U,1/1/2020
25Z,U,1/1/2020
26A,U,1/1/2020
26B,U,1/1/2020
26C,U,1/1/2020
26D,U,1/1/2020
26E,U,1/1/2020
26F,U,1/1/2020
26G,U,1/1/2020
26H,U,1/1/2020
26I,U,1/1/2020
26J,U,1/1/2020
26K,U,1/1/2020
26M,U,1/1/2020
26N,U,1/1/2020
26O,U,1/1/2020
26P,U,1/1/2020
26Q,U,1/1/2020
26X,U,1/1/2020
26Y,U,1/1/2020
26Z,U,1/1/2020
27A,I,1/1/2020
27B,I,1/1/2020
27C,I,1/1/2020
27D,I,1/1/2020
27E,I,1/1/2020
27F,I,1/1/2020
27G,I,1/1/2020
27H,I,1/1/2020
27I,I,1/1/2020
27J,I,1/1/2020
27K,I,1/1/2020
27M,I,1/1/2020
27N,I,1/1/2020
27O,I,1/1/2020
27P,I,1/1/2020
27Q,I,1/1/2020
27X,I,1/1/2020
27Y,I,1/1/2020
27Z,I,1/1/2020
28A,I,1/1/2020
28B,I,1/1/2020
28C,I,1/1/2020
28D,I,1/1/2020
28E,I,1/1/2020
28F,I,1/1/2020
28G,I,1/1/2020
28H,I,1/1/2020
28I,I,1/1/2020
28J,I,1/1/2020
28K,I,1/1/2020
28M,I,1/1/2020
28N,I,1/1/2020
28O,I,1/1/2020
28P,I,1/1/2020
28Q,I,1/1/2020
28X,I,1/1/2020
28Y,I,1/1/2020
28Z,I,1/1/2020
31A,I,1/1/2020
31B,I,1/1/2020
31C,I,1/1/2020
31D,I,1/1/2020
31E,I,1/1/2020
31F,I,1/1/2020
31G,I,1/1/2020
31H,I,1/1/2020
31I,I,1/1/2020
31J,I,1/1/2020
31K,I,1/1/2020
31M,I,1/1/2020
31N,I,1/1/2020
31O,I,1/1/2020
31P,I,1/1/2020
31Q,I,1/1/2020
31X,I,1/1/2020
31Y,I,1/1/2020
31Z,I,1/1/2020
32A,O,1/1/2020
32B,O,1/1/2020
32C,O,1/1/2020
32D,O,1/1/2020
32E,O,1/1/2020
32F,O,1/1/2020
32G,O,1/1/2020
32H,O,1/1/2020
32I,O,1/1/2020
32J,O,1/1/2020
32K,O,1/1/2020
32M,O,1/1/2020
32N,O,1/1/2020
32O,O,1/1/2020
32P,O,1/1/2020
32Q,O,1/1/2020
32X,O,1/1/2020
32Y,O,1/1/2020
32Z,O,1/1/2020
33A,O,1/1/2020
33B,O,1/1/2020
33C,O,1/1/2020
33D,O,1/1/2020
33E,O,1/1/2020
33F,O,1/1/2020
33G,O,1/1/2020
33H,O,1/1/2020
33I,O,1/1/2020
33J,O,1/1/2020
33K,O,1/1/2020
33M,O,1/1/2020
33N,O,1/1/2020
33O,O,1/1/2020
33P,O,1/1/2020
33Q,O,1/1/2020
33X,O,1/1/2020
33Y,O,1/1/2020
33Z,O,1/1/2020
34A,O,1/1/2020
34B,O,1/1/2020
34C,O,1/1/2020
34D,O,1/1/2020
34E,O,1/1/2020
34F,O,1/1/2020
34G,O,1/1/2020
34H,O,1/1/2020
34I,O,1/1/2020
34J,O,1/1/2020
34K,O,1/1/2020
34M,O,1/1/2020
34N,O,1/1/2020
34O,O,1/1/2020
34P,O,1/1/2020
34Q,O,1/1/2020
34X,O,1/1/2020
34Y,O,1/1/2020
34Z,O,1/1/2020
35A,U,1/1/2020
35B,U,1/1/2020
35C,U,1/1/2020
35D,U,1/1/2020
35E,U,1/1/2020
35F,U,1/1/2020
35G,U,1/1/2020
35H,U,1/1/2020
35I,U,1/1/2020
35J,U,1/1/2020
35K,U,1/1/2020
35M,U,1/1/2020
35N,U,1/1/2020
35O,U,1/1/2020
35P,U,1/1/2020
35Q,U,1/1/2020
35X,U,1/1/2020
35Y,U,1/1/2020
35Z,U,1/1/2020
36A,U,1/1/2020
36B,U,1/1/2020
36C,U,1/1/2020
36D,U,1/1/2020
36E,U,1/1/2020
36F,U,1/1/2020
36G,U,1/1/2020
36H,U,1/1/2020
36I,U,1/1/2020
36J,U,1/1/2020
36K,U,1/1/2020
36M,U,1/1/2020
36N,U,1/1/2020
36O,U,1/1/2020
36P,U,1/1/2020
36Q,U,1/1/2020
36X,U,1/1/2020
36Y,U,1/1/2020
36Z,U,1/1/2020
37A,I,1/1/2020
37B,I,1/1/2020
37C,I,1/1/2020
37D,I,1/1/2020
37E,I,1/1/2020
37F,I,1/1/2020
37G,I,1/1/2020
37H,I,1/1/2020
37I,I,1/1/2020
37J,I,1/1/2020
37K,I,1/1/2020
37M,I,1/1/2020
37N,I,1/1/2020
37O,I,1/1/2020
37P,I,1/1/2020
37Q,I,1/1/2020
37X,I,1/1/2020
37Y,I,1/1/2020
37Z,I,1/1/2020
38A,I,1/1/2020
38B,I,1/1/2020
38C,I,1/1/2020
38D,I,1/1/2020
38E,I,1/1/2020
38F,I,1/1/2020
38G,I,1/1/2020
38H,I,1/1/2020
38I,I,1/1/2020
38J,I,1/1/2020
38K,I,1/1/2020
38M,I,1/1/2020
38N,I,1/1/2020
38O,I,1/1/2020
38P,I,1/1/2020
38Q,I,1/1/2020
38X,I,1/1/2020
38Y,I,1/1/2020
38Z,I,1/1/2020
41A,I,1/1/2020
41B,I,1/1/2020
41C,I,1/1/2020
41D,I,1/1/2020
41E,I,1/1/2020
41F,I,1/1/2020
41G,I,1/1/2020
41H,I,1/1/2020
41I,I,1/1/2020
41J,I,1/1/2020
41K,I,1/1/2020
41M,I,1/1/2020
41N,I,1/1/2020
41O,I,1/1/2020
41P,I,1/1/2020
41Q,I,1/1/2020
41X,I,1/1/2020
41Y,I,1/1/2020
41Z,I,1/1/2020
42A,I,1/1/2020
42B,I,1/1/2020
42C,I,1/1/2020
42D,I,1/1/2020
42E,I,1/1/2020
42F,I,1/1/2020
42G,I,1/1/2020
42H,I,1/1/2020
42I,I,1/1/2020
42J,I,1/1/2020
42K,I,1/1/2020
42M,I,1/1/2020
42N,I,1/1/2020
42O,I,1/1/2020
42P,I,1/1/2020
42Q,I,1/1/2020
42X,I,1/1/2020
42Y,I,1/1/2020
42Z,I,1/1/2020
43A,O,1/1/2020
43B,O,1/1/2020
43C,O,1/1/2020
43D,O,1/1/2020
43E,O,1/1/2020
43F,O,1/1/2020
43G,O,1/1/2020
43H,O,1/1/2020
43I,O,1/1/2020
43J,O,1/1/2020
43K,O,1/1/2020
43M,O,1/1/2020
43N,O,1/1/2020
43O,O,1/1/2020
43P,O,1/1/2020
43Q,O,1/1/2020
43X,O,1/1/2020
43Y,O,1/1/2020
43Z,O,1/1/2020
44A,U,1/1/2020
44B,U,1/1/2020
44C,U,1/1/2020
44D,U,1/1/2020
44E,U,1/1/2020
44F,U,1/1/2020
44G,U,1/1/2020
44H,U,1/1/2020
44I,U,1/1/2020
44J,U,1/1/2020
44K,U,1/1/2020
44M,U,1/1/2020
44N,U,1/1/2020
44O,U,1/1/2020
44P,U,1/1/2020
44Q,U,1/1/2020
44X,U,1/1/2020
44Y,U,1/1/2020
44Z,U,1/1/2020
45A,U,1/1/2020
45B,U,1/1/2020
45C,U,1/1/2020
45D,U,1/1/2020
45E,U,1/1/2020
45F,U,1/1/2020
45G,U,1/1/2020
45H,U,1/1/2020
45I,U,1/1/2020
45J,U,1/1/2020
45K,U,1/1/2020
45M,U,1/1/2020
45N,U,1/1/2020
45O,U,1/1/2020
45P,U,1/1/2020
45Q,U,1/1/2020
45X,U,1/1/2020
45Y,U,1/1/2020
45Z,U,1/1/2020
46A,U,1/1/2020
46B,U,1/1/2020
46C,U,1/1/2020
46D,U,1/1/2020
46E,U,1/1/2020
46F,U,1/1/2020
46G,U,1/1/2020
46H,U,1/1/2020
46I,U,1/1/2020
46J,U,1/1/2020
46K,U,1/1/2020
46M,U,1/1/2020
46N,U,1/1/2020
46O,U,1/1/2020
46P,U,1/1/2020
46Q,U,1/1/2020
46X,U,1/1/2020
46Y,U,1/1/2020
46Z,U,1/1/2020
47A,I,1/1/2020
47B,I,1/1/2020
47C,I,1/1/2020
47D,I,1/1/2020
47E,I,1/1/2020
47F,I,1/1/2020
47G,I,1/1/2020
47H,I,1/1/2020
47I,I,1/1/2020
47J,I,1/1/2020
47K,I,1/1/2020
47M,I,1/1/2020
47N,I,1/1/2020
47O,I,1/1/2020
47P,I,1/1/2020
47Q,I,1/1/2020
47X,I,1/1/2020
47Y,I,1/1/2020
47Z,I,1/1/2020
48A,I,1/1/2020
48B,I,1/1/2020
48C,I,1/1/2020
48D,I,1/1/2020
48E,I,1/1/2020
48F,I,1/1/2020
48G,I,1/1/2020
48H,I,1/1/2020
48I,I,1/1/2020
48J,I,1/1/2020
48K,I,1/1/2020
48M,I,1/1/2020
48N,I,1/1/2020
48O,I,1/1/2020
48P,I,1/1/2020
48Q,I,1/1/2020
48X,I,1/1/2020
48Y,I,1/1/2020
48Z,I,1/1/2020
51A,I,1/1/2020
51B,I,1/1/2020
51C,I,1/1/2020
51D,I,1/1/2020
51E,I,1/1/2020
51F,I,1/1/2020
51G,I,1/1/2020
51H,I,1/1/2020
51I,I,1/1/2020
51J,I,1/1/2020
51K,I,1/1/2020
51M,I,1/1/2020
51N,I,1/1/2020
51O,I,1/1/2020
51P,I,1/1/2020
51Q,I,1/1/2020
51X,I,1/1/2020
51Y,I,1/1/2020
51Z,I,1/1/2020
52A,I,1/1/2020
52B,I,1/1/2020
52C,I,1/1/2020
52D,I,1/1/2020
52E,I,1/1/2020
52F,I,1/1/2020
52G,I,1/1/2020
52H,I,1/1/2020
52I,I,1/1/2020
52J,I,1/1/2020
52K,I,1/1/2020
52M,I,1/1/2020
52N,I,1/1/2020
52O,I,1/1/2020
52P,I,1/1/2020
52Q,I,1/1/2020
52X,I,1/1/2020
52Y,I,1/1/2020
52Z,I,1/1/2020
53A,O,1/1/2020
53B,O,1/1/2020
53C,O,1/1/2020
53D,O,1/1/2020
53E,O,1/1/2020
53F,O,1/1/2020
53G,O,1/1/2020
53H,O,1/1/2020
53I,O,1/1/2020
53J,O,1/1/2020
53K,O,1/1/2020
53M,O,1/1/2020
53N,O,1/1/2020
53O,O,1/1/2020
53P,O,1/1/2020
53Q,O,1/1/2020
53X,O,1/1/2020
53Y,O,1/1/2020
53Z,O,1/1/2020
54A,U,1/1/2020
54B,U,1/1/2020
54C,U,1/1/2020
54D,U,1/1/2020
54E,U,1/1/2020
54F,U,1/1/2020
54G,U,1/1/2020
54H,U,1/1/2020
54I,U,1/1/2020
54J,U,1/1/2020
54K,U,1/1/2020
54M,U,1/1/2020
54N,U,1/1/2020
54O,U,1/1/2020
54P,U,1/1/2020
54Q,U,1/1/2020
54X,U,1/1/2020
54Y,U,1/1/2020
54Z,U,1/1/2020
55A,U,1/1/2020
55B,U,1/1/2020
55C,U,1/1/2020
55D,U,1/1/2020
55E,U,1/1/2020
55F,U,1/1/2020
55G,U,1/1/2020
55H,U,1/1/2020
55I,U,1/1/2020
55J,U,1/1/2020
55K,U,1/1/2020
55M,U,1/1/2020
55N,U,1/1/2020
55O,U,1/1/2020
55P,U,1/1/2020
55Q,U,1/1/2020
55X,U,1/1/2020
55Y,U,1/1/2020
55Z,U,1/1/2020
56A,U,1/1/2020
56B,U,1/1/2020
56C,U,1/1/2020
56D,U,1/1/2020
56E,U,1/1/2020
56F,U,1/1/2020
56G,U,1/1/2020
56H,U,1/1/2020
56I,U,1/1/2020
56J,U,1/1/2020
56K,U,1/1/2020
56M,U,1/1/2020
56N,U,1/1/2020
56O,U,1/1/2020
56P,U,1/1/2020
56Q,U,1/1/2020
56X,U,1/1/2020
56Y,U,1/1/2020
56Z,U,1/1/2020
57A,I,1/1/2020
57B,I,1/1/2020
57C,I,1/1/2020
57D,I,1/1/2020
57E,I,1/1/2020
57F,I,1/1/2020
57G,I,1/1/2020
57H,I,1/1/2020
57I,I,1/1/2020
57J,I,1/1/2020
57K,I,1/1/2020
57M,I,1/1/2020
57N,I,1/1/2020
57O,I,1/1/2020
57P,I,1/1/2020
57Q,I,1/1/2020
57X,I,1/1/2020
57Y,I,1/1/2020
57Z,I,1/1/2020
58A,I,1/1/2020
58B,I,1/1/2020
58C,I,1/1/2020
58D,I,1/1/2020
58E,I,1/1/2020
58F,I,1/1/2020
58G,I,1/1/2020
58H,I,1/1/2020
58I,I,1/1/2020
58J,I,1/1/2020
58K,I,1/1/2020
58M,I,1/1/2020
58N,I,1/1/2020
58O,I,1/1/2020
58P,I,1/1/2020
58Q,I,1/1/2020
58X,I,1/1/2020
58Y,I,1/1/2020
58Z,I,1/1/2020
61A,I,1/1/2020
61B,I,1/1/2020
61C,I,1/1/2020
61D,I,1/1/2020
61E,I,1/1/2020
61F,I,1/1/2020
61G,I,1/1/2020
61H,I,1/1/2020
61I,I,1/1/2020
61J,I,1/1/2020
61K,I,1/1/2020
61M,I,1/1/2020
61N,I,1/1/2020
61O,I,1/1/2020
61P,I,1/1/2020
61Q,I,1/1/2020
61X,I,1/1/2020
61Y,I,1/1/2020
61Z,I,1/1/2020
62A,I,1/1/2020
62B,I,1/1/2020
62C,I,1/1/2020
62D,I,1/1/2020
62E,I,1/1/2020
62F,I,1/1/2020
62G,I,1/1/2020
62H,I,1/1/2020
62I,I,1/1/2020
62J,I,1/1/2020
62K,I,1/1/2020
62M,I,1/1/2020
62N,I,1/1/2020
62O,I,1/1/2020
62P,I,1/1/2020
62Q,I,1/1/2020
62X,I,1/1/2020
62Y,I,1/1/2020
62Z,I,1/1/2020
63A,O,1/1/2020
63B,O,1/1/2020
63C,O,1/1/2020
63D,O,1/1/2020
63E,O,1/1/2020
63F,O,1/1/2020
63G,O,1/1/2020
63H,O,1/1/2020
63I,O,1/1/2020
63J,O,1/1/2020
63K,O,1/1/2020
63M,O,1/1/2020
63N,O,1/1/2020
63O,O,1/1/2020
63P,O,1/1/2020
63Q,O,1/1/2020
63X,O,1/1/2020
63Y,O,1/1/2020
63Z,O,1/1/2020
64A,U,1/1/2020
64B,U,1/1/2020
64C,U,1/1/2020
64D,U,1/1/2020
64E,U,1/1/2020
64F,U,1/1/2020
64G,U,1/1/2020
64H,U,1/1/2020
64I,U,1/1/2020
64J,U,1/1/2020
64K,U,1/1/2020
64M,U,1/1/2020
64N,U,1/1/2020
64O,U,1/1/2020
64P,U,1/1/2020
64Q,U,1/1/2020
64X,U,1/1/2020
64Y,U,1/1/2020
64Z,U,1/1/2020
65A,I,1/1/2020
65B,I,1/1/2020
65C,I,1/1/2020
65D,I,1/1/2020
65E,I,1/1/2020
65F,I,1/1/2020
65G,I,1/1/2020
65H,I,1/1/2020
65I,I,1/1/2020
65J,I,1/1/2020
65K,I,1/1/2020
65M,I,1/1/2020
65N,I,1/1/2020
65O,I,1/1/2020
65P,I,1/1/2020
65Q,I,1/1/2020
65X,I,1/1/2020
65Y,I,1/1/2020
65Z,I,1/1/2020
66A,I,1/1/2020
66B,I,1/1/2020
66C,I,1/1/2020
66D,I,1/1/2020
66E,I,1/1/2020
66F,I,1/1/2020
66G,I,1/1/2020
66H,I,1/1/2020
66I,I,1/1/2020
66J,I,1/1/2020
66K,I,1/1/2020
66M,I,1/1/2020
66N,I,1/1/2020
66O,I,1/1/2020
66P,I,1/1/2020
66Q,I,1/1/2020
66X,I,1/1/2020
66Y,I,1/1/2020
66Z,I,1/1/2020
67A,I,1/1/2020
67B,I,1/1/2020
67C,I,1/1/2020
67D,I,1/1/2020
67E,I,1/1/2020
67F,I,1/1/2020
67G,I,1/1/2020
67H,I,1/1/2020
67I,I,1/1/2020
67J,I,1/1/2020
67K,I,1/1/2020
67M,I,1/1/2020
67N,I,1/1/2020
67O,I,1/1/2020
67P,I,1/1/2020
67Q,I,1/1/2020
67X,I,1/1/2020
67Y,I,1/1/2020
67Z,I,1/1/2020
68A,I,1/1/2020
68B,I,1/1/2020
68C,I,1/1/2020
68D,I,1/1/2020
68E,I,1/1/2020
68F,I,1/1/2020
68G,I,1/1/2020
68H,I,1/1/2020
68I,I,1/1/2020
68J,I,1/1/2020
68K,I,1/1/2020
68M,I,1/1/2020
68N,I,1/1/2020
68O,I,1/1/2020
68P,I,1/1/2020
68Q,I,1/1/2020
68X,I,1/1/2020
68Y,I,1/1/2020
68Z,I,1/1/2020
71A,O,1/1/2020
71B,O,1/1/2020
71C,O,1/1/2020
71D,O,1/1/2020
71E,O,1/1/2020
71F,O,1/1/2020
71G,O,1/1/2020
71H,O,1/1/2020
71I,O,1/1/2020
71J,O,1/1/2020
71K,O,1/1/2020
71M,O,1/1/2020
71N,O,1/1/2020
71O,O,1/1/2020
71P,O,1/1/2020
71Q,O,1/1/2020
71X,O,1/1/2020
71Y,O,1/1/2020
71Z,O,1/1/2020
72A,O,1/1/2020
72B,O,1/1/2020
72C,O,1/1/2020
72D,O,1/1/2020
72E,O,1/1/2020
72F,O,1/1/2020
72G,O,1/1/2020
72H,O,1/1/2020
72I,O,1/1/2020
72J,O,1/1/2020
72K,O,1/1/2020
72M,O,1/1/2020
72N,O,1/1/2020
72O,O,1/1/2020
72P,O,1/1/2020
72Q,O,1/1/2020
72X,O,1/1/2020
72Y,O,1/1/2020
72Z,O,1/1/2020
73A,O,1/1/2020
73B,O,1/1/2020
73C,O,1/1/2020
73D,O,1/1/2020
73E,O,1/1/2020
73F,O,1/1/2020
73G,O,1/1/2020
73H,O,1/1/2020
73I,O,1/1/2020
73J,O,1/1/2020
73K,O,1/1/2020
73M,O,1/1/2020
73N,O,1/1/2020
73O,O,1/1/2020
73P,O,1/1/2020
73Q,O,1/1/2020
73X,O,1/1/2020
73Y,O,1/1/2020
73Z,O,1/1/2020
74A,O,1/1/2020
74B,O,1/1/2020
74C,O,1/1/2020
74D,O,1/1/2020
74E,O,1/1/2020
74F,O,1/1/2020
74G,O,1/1/2020
74H,O,1/1/2020
74I,O,1/1/2020
74J,O,1/1/2020
74K,O,1/1/2020
74M,O,1/1/2020
74N,O,1/1/2020
74O,O,1/1/2020
74P,O,1/1/2020
74Q,O,1/1/2020
74X,O,1/1/2020
74Y,O,1/1/2020
74Z,O,1/1/2020
75A,O,1/1/2020
75B,O,1/1/2020
75C,O,1/1/2020
75D,O,1/1/2020
75E,O,1/1/2020
75F,O,1/1/2020
75G,O,1/1/2020
75H,O,1/1/2020
75I,O,1/1/2020
75J,O,1/1/2020
75K,O,1/1/2020
75M,O,1/1/2020
75N,O,1/1/2020
75O,O,1/1/2020
75P,O,1/1/2020
75Q,O,1/1/2020
75X,O,1/1/2020
75Y,O,1/1/2020
75Z,O,1/1/2020
76A,O,1/1/2020
76B,O,1/1/2020
76C,O,1/1/2020
76D,O,1/1/2020
76E,O,1/1/2020
76F,O,1/1/2020
76G,O,1/1/2020
76H,O,1/1/2020
76I,O,1/1/2020
76J,O,1/1/2020
76K,O,1/1/2020
76M,O,1/1/2020
76N,O,1/1/2020
76O,O,1/1/2020
76P,O,1/1/2020
76Q,O,1/1/2020
76X,O,1/1/2020
76Y,O,1/1/2020
76Z,O,1/1/2020
77A,O,1/1/2020
77B,O,1/1/2020
77C,O,1/1/2020
77D,O,1/1/2020
77E,O,1/1/2020
77F,O,1/1/2020
77G,O,1/1/2020
77H,O,1/1/2020
77I,O,1/1/2020
77J,O,1/1/2020
77K,O,1/1/2020
77M,O,1/1/2020
77N,O,1/1/2020
77O,O,1/1/2020
77P,O,1/1/2020
77Q,O,1/1/2020
77X,O,1/1/2020
77Y,O,1/1/2020
77Z,O,1/1/2020
78A,O,1/1/2020
78B,O,1/1/2020
78C,O,1/1/2020
78D,O,1/1/2020
78E,O,1/1/2020
78F,O,1/1/2020
78G,O,1/1/2020
78H,O,1/1/2020
78I,O,1/1/2020
78J,O,1/1/2020
78K,O,1/1/2020
78M,O,1/1/2020
78N,O,1/1/2020
78O,O,1/1/2020
78P,O,1/1/2020
78Q,O,1/1/2020
78X,O,1/1/2020
78Y,O,1/1/2020
78Z,O,1/1/2020
79A,O,1/1/2020
79B,O,1/1/2020
79C,O,1/1/2020
79D,O,1/1/2020
79E,O,1/1/2020
79F,O,1/1/2020
79G,O,1/1/2020
79H,O,1/1/2020
79I,O,1/1/2020
79J,O,1/1/2020
79K,O,1/1/2020
79M,O,1/1/2020
79N,O,1/1/2020
79O,O,1/1/2020
79P,O,1/1/2020
79Q,O,1/1/2020
79X,O,1/1/2020
79Y,O,1/1/2020
79Z,O,1/1/2020
81A,O,1/1/2020
81B,O,1/1/2020
81C,O,1/1/2020
81D,O,1/1/2020
81E,O,1/1/2020
81F,O,1/1/2020
81G,O,1/1/2020
81H,O,1/1/2020
81I,O,1/1/2020
81J,O,1/1/2020
81K,O,1/1/2020
81M,O,1/1/2020
81N,O,1/1/2020
81O,O,1/1/2020
81P,O,1/1/2020
81Q,O,1/1/2020
81X,O,1/1/2020
81Y,O,1/1/2020
81Z,O,1/1/2020
82A,O,1/1/2020
82B,O,1/1/2020
82C,O,1/1/2020
82D,O,1/1/2020
82E,O,1/1/2020
82F,O,1/1/2020
82G,O,1/1/2020
82H,O,1/1/2020
82I,O,1/1/2020
82J,O,1/1/2020
82K,O,1/1/2020
82M,O,1/1/2020
82N,O,1/1/2020
82O,O,1/1/2020
82P,O,1/1/2020
82Q,O,1/1/2020
82X,O,1/1/2020
82Y,O,1/1/2020
82Z,O,1/1/2020
83A,O,1/1/2020
83B,O,1/1/2020
83C,O,1/1/2020
83D,O,1/1/2020
83E,O,1/1/2020
83F,O,1/1/2020
83G,O,1/1/2020
83H,O,1/1/2020
83I,O,1/1/2020
83J,O,1/1/2020
83K,O,1/1/2020
83M,O,1/1/2020
83N,O,1/1/2020
83O,O,1/1/2020
83P,O,1/1/2020
83Q,O,1/1/2020
83X,O,1/1/2020
83Y,O,1/1/2020
83Z,O,1/1/2020
84A,O,1/1/2020
84B,O,1/1/2020
84C,O,1/1/2020
84D,O,1/1/2020
84E,O,1/1/2020
84F,O,1/1/2020
84G,O,1/1/2020
84H,O,1/1/2020
84I,O,1/1/2020
84J,O,1/1/2020
84K,O,1/1/2020
84M,O,1/1/2020
84N,O,1/1/2020
84O,O,1/1/2020
84P,O,1/1/2020
84Q,O,1/1/2020
84X,O,1/1/2020
84Y,O,1/1/2020
84Z,O,1/1/2020
85A,O,1/1/2020
85B,O,1/1/2020
85C,O,1/1/2020
85D,O,1/1/2020
85E,O,1/1/2020
85F,O,1/1/2020
85G,O,1/1/2020
85H,O,1/1/2020
85I,O,1/1/2020
85J,O,1/1/2020
85K,O,1/1/2020
85M,O,1/1/2020
85N,O,1/1/2020
85O,O,1/1/2020
85P,O,1/1/2020
85Q,O,1/1/2020
85X,O,1/1/2020
85Y,O,1/1/2020
85Z,O,1/1/2020
86A,I,1/1/2020
86B,I,1/1/2020
86C,I,1/1/2020
86D,I,1/1/2020
86E,I,1/1/2020
86F,I,1/1/2020
86G,I,1/1/2020
86H,I,1/1/2020
86I,I,1/1/2020
86J,I,1/1/2020
86K,I,1/1/2020
86M,I,1/1/2020
86N,I,1/1/2020
86O,I,1/1/2020
86P,I,1/1/2020
86Q,I,1/1/2020
86X,I,1/1/2020
86Y,I,1/1/2020
86Z,I,1/1/2020
89A,O,1/1/2020
89B,O,1/1/2020
89C,O,1/1/2020
89D,O,1/1/2020
89E,O,1/1/2020
89F,O,1/1/2020
89G,O,1/1/2020
89H,O,1/1/2020
89I,O,1/1/2020
89J,O,1/1/2020
89K,O,1/1/2020
89M,O,1/1/2020
89N,O,1/1/2020
89O,O,1/1/2020
89P,O,1/1/2020
89Q,O,1/1/2020
89X,O,1/1/2020
89Y,O,1/1/2020
89Z,O,1/1/2020
